lab3-verilog-fir/nthu_vic/sim/fir.vcd
$date
   Wed Oct 25 09:16:33 2023
$end
$version
  2022.1
$end
$timescale
  1ps
$end
$scope module fir_tb $end
$var wire 1 ! awready $end
$var wire 1 " wready $end
$var reg 1 # awvalid $end
$var reg 12 $ awaddr [11:0] $end
$var reg 1 % wvalid $end
$var reg 32 & wdata [31:0] $end
$var wire 1 ' arready $end
$var reg 1 ( rready $end
$var reg 1 ) arvalid $end
$var reg 12 * araddr [11:0] $end
$var wire 1 + rvalid $end
$var wire 32 , rdata [31:0] $end
$var reg 1 - ss_tvalid $end
$var reg 32 . ss_tdata [31:0] $end
$var reg 1 / ss_tlast $end
$var wire 1 0 ss_tready $end
$var reg 1 1 sm_tready $end
$var wire 1 2 sm_tvalid $end
$var wire 32 3 sm_tdata [31:0] $end
$var wire 1 4 sm_tlast $end
$var reg 1 5 axis_clk $end
$var reg 1 6 axis_rst_n $end
$var wire 4 7 tap_WE [3:0] $end
$var wire 1 8 tap_EN $end
$var wire 32 9 tap_Di [31:0] $end
$var wire 12 : tap_A [11:0] $end
$var wire 32 ; tap_Do [31:0] $end
$var wire 4 < data_WE [3:0] $end
$var wire 1 = data_EN $end
$var wire 32 > data_Di [31:0] $end
$var wire 12 ? data_A [11:0] $end
$var wire 32 @ data_Do [31:0] $end
$var reg 32 A data_length [31:0] $end
$var integer 32 B Din [31:0] $end
$var integer 32 C golden [31:0] $end
$var integer 32 D input_data [31:0] $end
$var integer 32 E golden_data [31:0] $end
$var integer 32 F m [31:0] $end
$var integer 32 G i [31:0] $end
$var integer 32 H k [31:0] $end
$var reg 1 I error $end
$var reg 1 J status_error $end
$var integer 32 K timeout [31:0] $end
$var reg 1 L error_coef $end
$var integer 32 M l [31:0] $end
$scope module fir_DUT $end
$var wire 1 ! awready $end
$var wire 1 " wready $end
$var wire 1 N awvalid $end
$var wire 1 O wvalid $end
$var wire 12 P awaddr [11:0] $end
$var wire 32 Q wdata [31:0] $end
$var wire 1 ' arready $end
$var wire 1 R rready $end
$var wire 1 S arvalid $end
$var wire 1 + rvalid $end
$var wire 12 T araddr [11:0] $end
$var wire 32 , rdata [31:0] $end
$var wire 1 0 ss_tready $end
$var wire 1 U ss_tvalid $end
$var wire 32 V ss_tdata [31:0] $end
$var wire 1 W ss_tlast $end
$var wire 1 X sm_tready $end
$var wire 1 2 sm_tvalid $end
$var wire 32 3 sm_tdata [31:0] $end
$var wire 1 4 sm_tlast $end
$var wire 4 7 tap_WE [3:0] $end
$var wire 1 8 tap_EN $end
$var wire 32 9 tap_Di [31:0] $end
$var wire 12 : tap_A [11:0] $end
$var wire 32 ; tap_Do [31:0] $end
$var wire 4 < data_WE [3:0] $end
$var wire 1 = data_EN $end
$var wire 32 > data_Di [31:0] $end
$var wire 12 ? data_A [11:0] $end
$var wire 32 @ data_Do [31:0] $end
$var wire 1 Y axis_clk $end
$var wire 1 Z axis_rst_n $end
$var reg 1 [ tmp_rvalid $end
$var reg 3 \ ap_ctrl [2:0] $end
$var reg 2 ] ap_state [1:0] $end
$var reg 2 ^ next_ap_state [1:0] $end
$var reg 32 _ data_length [31:0] $end
$var wire 32 ` data_length_tmp [31:0] $end
$var wire 6 a next_init_addr [5:0] $end
$var reg 6 b init_addr [5:0] $end
$var reg 1 c ss_state $end
$var reg 1 d next_ss_state $end
$var reg 1 e ss_idle $end
$var reg 1 f sm_state $end
$var reg 1 g next_sm_state $end
$var reg 1 h _sm_tlast $end
$var reg 5 i y_cnt [4:0] $end
$var wire 5 j y_cnt_tmp [4:0] $end
$var reg 10 k tlast_cnt [9:0] $end
$var wire 10 l tlast_cnt_tmp [9:0] $end
$var wire 32 m h_tmp [31:0] $end
$var wire 32 n x_tmp [31:0] $end
$var reg 32 o h [31:0] $end
$var reg 32 p x [31:0] $end
$var wire 32 q m_tmp [31:0] $end
$var reg 32 r m [31:0] $end
$var wire 32 s y_tmp [31:0] $end
$var reg 32 t y [31:0] $end
$var wire 12 u tap_AR [11:0] $end
$var reg 4 v k [3:0] $end
$var wire 4 w k_tmp [3:0] $end
$var reg 4 x x_cnt [3:0] $end
$var reg 4 y x_cnt_tmp [3:0] $end
$var wire 6 z data_A_tmp [5:0] $end
$var reg 32 { data_ff [31:0] $end
$var wire 32 | x_sel [31:0] $end
$var reg 1 } mux_data_sel $end
$upscope $end
$scope module tap_RAM $end
$var wire 1 ~ CLK $end
$var wire 4 7 WE [3:0] $end
$var wire 1 8 EN $end
$var wire 32 9 Di [31:0] $end
$var wire 32 ; Do [31:0] $end
$var wire 12 : A [11:0] $end
$var reg 12 !! r_A [11:0] $end
$var reg 32 "! Temp_D [31:0] $end
$upscope $end
$scope module data_RAM $end
$var wire 1 #! CLK $end
$var wire 4 < WE [3:0] $end
$var wire 1 = EN $end
$var wire 32 > Di [31:0] $end
$var wire 32 @ Do [31:0] $end
$var wire 12 ? A [11:0] $end
$var reg 12 $! r_A [11:0] $end
$var reg 32 %! Temp_D [31:0] $end
$upscope $end
$scope task config_write $end
$var reg 12 &! addr [11:0] $end
$var reg 32 '! data [31:0] $end
$upscope $end
$scope task config_read_check $end
$var reg 12 (! addr [11:0] $end
$var reg 32 )! exp_data [31:0] $end
$var reg 32 *! mask [31:0] $end
$upscope $end
$scope task ss $end
$var reg 32 +! in1 [31:0] $end
$upscope $end
$scope task sm $end
$var reg 32 ,! in2 [31:0] $end
$var reg 32 -! pcnt [31:0] $end
$upscope $end
$upscope $end
$enddefinitions $end
#0
$dumpvars
1!
bx !!
1"
bx "!
0#
0#!
bx $
bx $!
0%
bx %!
bx &
b10000 &!
1'
b1001011000 '!
x(
bx (!
x)
bx )!
bx *
bx *!
x+
bx +!
bx ,
bx ,!
x-
bx -!
bx .
x/
10
11
02
b0 3
04
05
06
b0 7
18
bx 9
b0xxxxxx :
bx ;
b0 <
x=
bx >
b111100 ?
bx @
b1001011000 A
b11111111111111111011000111100000 B
b11111111111111111011000111100001 C
b1 D
b1 E
b1001011000 F
bx G
bx H
0I
0J
b11110100001001000000 K
0L
bx M
0N
0O
bx P
bx Q
xR
xS
bx T
xU
bx V
xW
1X
0Y
0Z
x[
b100 \
b1 ]
b1 ^
b0 _
bx `
b0 a
b111100 b
0c
0d
0e
0f
0g
0h
b10001 i
b0 j
b0 k
b0 l
bx m
bx n
b0 o
b0 p
b0 q
b0 r
b0 s
b0 t
b0xxxxxx u
b1010 v
b0 w
b0 x
b0 y
b100 z
b0 {
bx |
0}
0~
$end
#5000
b0xxxxxx !!
1#
1#!
b10000 $
b111100 $!
1%
b1001011000 &
1'
15
b1111 7
b1001011000 9
b10000 :
bx ;
bx @
b11110100001000111111 K
1N
1O
b10000 P
b1001011000 Q
1Y
x[
b100 \
b1 ]
b1 ^
b0 _
b1001011000 `
b111100 b
0c
0f
b10001 i
b0 k
b0 o
b0 p
b0 r
b0 t
b1010 v
b0 x
b0 {
1~
#10000
0#!
05
0Y
0~
#15000
b10000 !!
0#
1#!
b111100 $!
0%
b10000000 &!
1'
b0 '!
b0 +!
b0x00x0xxx00 ,
1-
b0 .
0/
10
15
16
b0 7
b0xxxxxx :
b1001011000 ;
b1111 <
1=
b0 >
b0 ?
bx @
b0 G
b0 H
b11110100001000111110 K
0N
0O
1U
b0 V
0W
1Y
1Z
x[
b100 \
b1 ]
b1 ^
b1001011000 _
b1001011000 `
b100 a
b0 b
0c
1d
1e
0f
b10001 i
b0 k
b1001011000 m
bx n
b0 o
b0 p
b0 r
b0 t
b1010 v
b0 x
bx {
bx |
1~
#20000
0#!
05
0Y
0~
#25000
b0xxxxxx !!
1#
1#!
b10000000 $
b0 $!
1%
b0 &
1'
b0 +!
bx ,
1-
b0 .
10
15
b1111 7
b0 9
b0 :
bx ;
b100 ?
b0 @
b1 G
b11110100001000111101 K
1N
1O
b10000000 P
b0 Q
1Y
x[
b100 \
b1 ]
b1 ^
b1001011000 _
b1001011000 `
b1000 a
b100 b
1c
0f
b10001 i
b0 k
bx m
b0 n
b0 o
b0 p
b0 r
b0 t
b1010 v
b0 x
b0 {
b0 |
1~
#30000
0#!
05
0Y
0~
#35000
b0 !!
0#
1#!
b100 $!
0%
b10000100 &!
1'
b11111111111111111111111111110110 '!
b0 +!
b0x00 ,
1-
b0 .
10
15
b0 7
b0xxxxxx :
b0 ;
b1000 ?
b0 @
b10 G
b1 H
b11110100001000111100 K
0N
0O
1Y
x[
b1 ]
b1001011000 _
b1100 a
b1000 b
1c
0f
b10001 i
b0 k
b0 m
b0 o
b0 p
b0 r
b0 t
b1010 v
b0 x
b0 {
1~
#40000
0#!
05
0Y
0~
#45000
b0xxxxxx !!
1#
1#!
b10000100 $
b1000 $!
1%
b11111111111111111111111111110110 &
1'
b0 +!
bx ,
1-
b0 .
10
15
b1111 7
b11111111111111111111111111110110 9
b100 :
bx ;
b1100 ?
b0 @
b11 G
b11110100001000111011 K
1N
1O
b10000100 P
b11111111111111111111111111110110 Q
1Y
x[
b100 \
b1 ]
b1 ^
b1001011000 _
b1001011000 `
b10000 a
b1100 b
1c
0f
b10001 i
b0 k
bx m
b0 o
b0 p
b0 r
b0 t
b1010 v
b0 x
b0 {
1~
#50000
0#!
05
0Y
0~
#55000
b100 !!
0#
1#!
b1100 $!
0%
b10001000 &!
1'
b11111111111111111111111111110111 '!
b0 +!
bx01x0 ,
1-
b0 .
10
15
b0 7
b0xxxxxx :
b11111111111111111111111111110110 ;
b10000 ?
b0 @
b100 G
b10 H
b11110100001000111010 K
0N
0O
1Y
x[
b1 ]
b1001011000 _
b10100 a
b10000 b
1c
0f
b10001 i
b0 k
b11111111111111111111111111110110 m
b0 o
b0 p
b0 r
b0 t
b1010 v
b0 x
b0 {
1~
#60000
0#!
05
0Y
0~
#65000
b0xxxxxx !!
1#
1#!
b10001000 $
b10000 $!
1%
b11111111111111111111111111110111 &
1'
b0 +!
bx ,
1-
b0 .
10
15
b1111 7
b11111111111111111111111111110111 9
b1000 :
bx ;
b10100 ?
b0 @
b101 G
b11110100001000111001 K
1N
1O
b10001000 P
b11111111111111111111111111110111 Q
1Y
x[
b100 \
b1 ]
b1 ^
b1001011000 _
b1001011000 `
b11000 a
b10100 b
1c
0f
b10001 i
b0 k
bx m
b0 o
b0 p
b0 r
b0 t
b1010 v
b0 x
b0 {
1~
#70000
0#!
05
0Y
0~
#75000
b1000 !!
0#
1#!
b10100 $!
0%
b10001100 &!
1'
b10111 '!
b0 +!
bx01xx ,
1-
b0 .
10
15
b0 7
b0xxxxxx :
b11111111111111111111111111110111 ;
b11000 ?
b0 @
b110 G
b11 H
b11110100001000111000 K
0N
0O
1Y
x[
b1 ]
b1001011000 _
b11100 a
b11000 b
1c
0f
b10001 i
b0 k
b11111111111111111111111111110111 m
b0 o
b0 p
b0 r
b0 t
b1010 v
b0 x
b0 {
1~
#80000
0#!
05
0Y
0~
#85000
b0xxxxxx !!
1#
1#!
b10001100 $
b11000 $!
1%
b10111 &
1'
b0 +!
bx ,
1-
b0 .
10
15
b1111 7
b10111 9
b1100 :
bx ;
b11100 ?
b0 @
b111 G
b11110100001000110111 K
1N
1O
b10001100 P
b10111 Q
1Y
x[
b100 \
b1 ]
b1 ^
b1001011000 _
b1001011000 `
b100000 a
b11100 b
1c
0f
b10001 i
b0 k
bx m
b0 o
b0 p
b0 r
b0 t
b1010 v
b0 x
b0 {
1~
#90000
0#!
05
0Y
0~
#95000
b1100 !!
0#
1#!
b11100 $!
0%
b10010000 &!
1'
b111000 '!
b0 +!
b0x01xx ,
1-
b0 .
10
15
b0 7
b0xxxxxx :
b10111 ;
b100000 ?
b0 @
b1000 G
b100 H
b11110100001000110110 K
0N
0O
1Y
x[
b1 ]
b1001011000 _
b100100 a
b100000 b
1c
0f
b10001 i
b0 k
b10111 m
b0 o
b0 p
b0 r
b0 t
b1010 v
b0 x
b0 {
1~
#100000
0#!
05
0Y
0~
#105000
b0xxxxxx !!
1#
1#!
b10010000 $
b100000 $!
1%
b111000 &
1'
b0 +!
bx ,
1-
b0 .
10
15
b1111 7
b111000 9
b10000 :
bx ;
b100100 ?
b0 @
b1001 G
b11110100001000110101 K
1N
1O
b10010000 P
b111000 Q
1Y
x[
b100 \
b1 ]
b1 ^
b1001011000 _
b1001011000 `
b101000 a
b100100 b
1c
0f
b10001 i
b0 k
bx m
b0 o
b0 p
b0 r
b0 t
b1010 v
b0 x
b0 {
1~
#110000
0#!
05
0Y
0~
#115000
b10000 !!
0#
1#!
b100100 $!
0%
b10010100 &!
1'
b111111 '!
b0 +!
b0xxxx00 ,
1-
b0 .
10
15
b0 7
b0xxxxxx :
b111000 ;
b101000 ?
b0 @
b1010 G
b101 H
b11110100001000110100 K
0N
0O
1Y
x[
b1 ]
b1001011000 _
b101100 a
b101000 b
1c
0f
b10001 i
b0 k
b111000 m
b0 o
b0 p
b0 r
b0 t
b1010 v
b0 x
b0 {
1~
#120000
0#!
05
0Y
0~
#125000
b0xxxxxx !!
1#
1#!
b10010100 $
b101000 $!
1%
b111111 &
1'
b1 +!
bx ,
1-
b1 .
00
15
b1111 7
b111111 9
b10100 :
bx ;
b0 <
1=
b1 >
b100 ?
b0 @
b0 G
b11110100001000110011 K
1N
1O
b10010100 P
b111111 Q
1U
b1 V
1Y
x[
b100 \
b1 ]
b1 ^
b1001011000 _
b1001011000 `
b101100 a
b101100 b
1c
0f
b10001 i
b0 k
bx m
b0 o
b0 p
b0 r
b0 t
b1010 v
b0 x
b0 {
1~
#130000
0#!
05
0Y
0~
#135000
b10100 !!
0#
1#!
b100 $!
0%
b10011000 &!
1'
b111000 '!
b0xxx1xx ,
15
b0 7
b0xxxxxx :
b111111 ;
b0 @
b110 H
b11110100001000110010 K
0N
0O
1Y
x[
b1 ]
b1001011000 _
b101100 b
1c
0f
b10001 i
b0 k
b111111 m
b0 o
b0 p
b0 r
b0 t
b1010 v
b0 x
b1 {
b0 |
1~
#140000
0#!
05
0Y
0~
#145000
b0xxxxxx !!
1#
1#!
b10011000 $
b100 $!
1%
b111000 &
1'
bx ,
15
b1111 7
b111000 9
b11000 :
bx ;
b11110100001000110001 K
1N
1O
b10011000 P
b111000 Q
1Y
x[
b100 \
b1 ]
b1 ^
b1001011000 _
b1001011000 `
b101100 b
1c
0f
b10001 i
b0 k
bx m
b0 o
b0 p
b0 r
b0 t
b1010 v
b0 x
b1 {
1~
#150000
0#!
05
0Y
0~
#155000
b11000 !!
0#
1#!
b100 $!
0%
b10011100 &!
1'
b10111 '!
b0xxxx00 ,
15
b0 7
b0xxxxxx :
b111000 ;
b111 H
b11110100001000110000 K
0N
0O
1Y
x[
b1 ]
b1001011000 _
b101100 b
1c
0f
b10001 i
b0 k
b111000 m
b0 o
b0 p
b0 r
b0 t
b1010 v
b0 x
b1 {
1~
#160000
0#!
05
0Y
0~
#165000
b0xxxxxx !!
1#
1#!
b10011100 $
b100 $!
1%
b10111 &
1'
bx ,
15
b1111 7
b10111 9
b11100 :
bx ;
b11110100001000101111 K
1N
1O
b10011100 P
b10111 Q
1Y
x[
b100 \
b1 ]
b1 ^
b1001011000 _
b1001011000 `
b101100 b
1c
0f
b10001 i
b0 k
bx m
b0 o
b0 p
b0 r
b0 t
b1010 v
b0 x
b1 {
1~
#170000
0#!
05
0Y
0~
#175000
b11100 !!
0#
1#!
b100 $!
0%
b10100000 &!
1'
b11111111111111111111111111110111 '!
b0x01xx ,
15
b0 7
b0xxxxxx :
b10111 ;
b1000 H
b11110100001000101110 K
0N
0O
1Y
x[
b1 ]
b1001011000 _
b101100 b
1c
0f
b10001 i
b0 k
b10111 m
b0 o
b0 p
b0 r
b0 t
b1010 v
b0 x
b1 {
1~
#180000
0#!
05
0Y
0~
#185000
b0xxxxxx !!
1#
1#!
b10100000 $
b100 $!
1%
b11111111111111111111111111110111 &
1'
bx ,
15
b1111 7
b11111111111111111111111111110111 9
b100000 :
bx ;
b11110100001000101101 K
1N
1O
b10100000 P
b11111111111111111111111111110111 Q
1Y
x[
b100 \
b1 ]
b1 ^
b1001011000 _
b1001011000 `
b101100 b
1c
0f
b10001 i
b0 k
bx m
b0 o
b0 p
b0 r
b0 t
b1010 v
b0 x
b1 {
1~
#190000
0#!
05
0Y
0~
#195000
b100000 !!
0#
1#!
b100 $!
0%
b10100100 &!
1'
b11111111111111111111111111110110 '!
bx01xx ,
15
b0 7
b0xxxxxx :
b11111111111111111111111111110111 ;
b1001 H
b11110100001000101100 K
0N
0O
1Y
x[
b1 ]
b1001011000 _
b101100 b
1c
0f
b10001 i
b0 k
b11111111111111111111111111110111 m
b0 o
b0 p
b0 r
b0 t
b1010 v
b0 x
b1 {
1~
#200000
0#!
05
0Y
0~
#205000
b0xxxxxx !!
1#
1#!
b10100100 $
b100 $!
1%
b11111111111111111111111111110110 &
1'
bx ,
15
b1111 7
b11111111111111111111111111110110 9
b100100 :
bx ;
b11110100001000101011 K
1N
1O
b10100100 P
b11111111111111111111111111110110 Q
1Y
x[
b100 \
b1 ]
b1 ^
b1001011000 _
b1001011000 `
b101100 b
1c
0f
b10001 i
b0 k
bx m
b0 o
b0 p
b0 r
b0 t
b1010 v
b0 x
b1 {
1~
#210000
0#!
05
0Y
0~
#215000
b100100 !!
0#
1#!
b100 $!
0%
b10101000 &!
1'
b0 '!
bx01x0 ,
15
b0 7
b0xxxxxx :
b11111111111111111111111111110110 ;
b1010 H
b11110100001000101010 K
0N
0O
1Y
x[
b1 ]
b1001011000 _
b101100 b
1c
0f
b10001 i
b0 k
b11111111111111111111111111110110 m
b0 o
b0 p
b0 r
b0 t
b1010 v
b0 x
b1 {
1~
#220000
0#!
05
0Y
0~
#225000
b0xxxxxx !!
1#
1#!
b10101000 $
b100 $!
1%
b0 &
1'
bx ,
15
b1111 7
b0 9
b101000 :
bx ;
b11110100001000101001 K
1N
1O
b10101000 P
b0 Q
1Y
x[
b100 \
b1 ]
b1 ^
b1001011000 _
b1001011000 `
b101100 b
1c
0f
b10001 i
b0 k
bx m
b0 o
b0 p
b0 r
b0 t
b1010 v
b0 x
b1 {
1~
#230000
0#!
05
0Y
0~
#235000
b101000 !!
0#
1#!
b100 $!
0%
1'
b10000000 (!
0)
b0 )!
b11111111111111111111111111111111 *!
b0x00 ,
15
b0 7
b0xxxxxx :
b0 ;
b1011 H
b11110100001000101000 K
b0 M
0N
0O
0S
1Y
x[
b100 \
b1 ]
b1 ^
b1001011000 _
b101100 b
1c
0f
b10001 i
b0 k
b0 m
b0 o
b0 p
b0 r
b0 t
b1010 v
b0 x
b1 {
1~
#240000
0#!
05
0Y
0~
#245000
b0xxxxxx !!
1#!
b100 $!
1(
1)
b10000000 *
0+
bx ,
15
b0 :
bx ;
b11110100001000100111 K
1R
1S
b10000000 T
1Y
0[
b100 \
b1 ]
b1 ^
b1001011000 _
b101100 b
1c
0f
b10001 i
b0 k
bx m
b0 o
b0 p
b0 r
b0 t
b0 u
b1010 v
b0 x
b1 {
1~
#250000
0#!
05
0Y
0~
#255000
b0 !!
1#!
b100 $!
1+
b0 ,
15
b0 ;
b11110100001000100110 K
1Y
1[
b100 \
b1 ]
b1 ^
b1001011000 _
b101100 b
1c
0f
b10001 i
b0 k
b0 m
b0 o
b0 p
b0 r
b0 t
b1010 v
b0 x
b1 {
1~
#260000
0#!
05
0Y
0~
#265000
b0 !!
1#!
b100 $!
b10000100 (!
0)
b11111111111111111111111111110110 )!
b11111111111111111111111111111111 *!
15
b11110100001000100101 K
b1 M
0S
1Y
1[
b100 \
b1 ]
b1 ^
b1001011000 _
b101100 b
1c
0f
b10001 i
b0 k
b0 o
b0 p
b0 r
b0 t
b1010 v
b0 x
b1 {
1~
#270000
0#!
05
0Y
0~
#275000
b0 !!
1#!
b100 $!
1(
1)
b10000100 *
0+
b0 ,
15
b100 :
b11110100001000100100 K
1S
b10000100 T
1Y
0[
b100 \
b1 ]
b1 ^
b1001011000 _
b101100 b
1c
0f
b10001 i
b0 k
b0 o
b0 p
b0 r
b0 t
b100 u
b1010 v
b0 x
b1 {
1~
#280000
0#!
05
0Y
0~
#285000
b100 !!
1#!
b100 $!
1+
b11111111111111111111111111110110 ,
15
b11111111111111111111111111110110 ;
b11110100001000100011 K
1Y
1[
b100 \
b1 ]
b1 ^
b1001011000 _
b101100 b
1c
0f
b10001 i
b0 k
b11111111111111111111111111110110 m
b0 o
b0 p
b0 r
b0 t
b1010 v
b0 x
b1 {
1~
#290000
0#!
05
0Y
0~
#295000
b100 !!
1#!
b100 $!
b10001000 (!
0)
b11111111111111111111111111110111 )!
b11111111111111111111111111111111 *!
15
b11110100001000100010 K
b10 M
0S
1Y
1[
b100 \
b1 ]
b1 ^
b1001011000 _
b101100 b
1c
0f
b10001 i
b0 k
b0 o
b0 p
b0 r
b0 t
b1010 v
b0 x
b1 {
1~
#300000
0#!
05
0Y
0~
#305000
b100 !!
1#!
b100 $!
1(
1)
b10001000 *
0+
b11111111111111111111111111110110 ,
15
b1000 :
b11110100001000100001 K
1S
b10001000 T
1Y
0[
b100 \
b1 ]
b1 ^
b1001011000 _
b101100 b
1c
0f
b10001 i
b0 k
b0 o
b0 p
b0 r
b0 t
b1000 u
b1010 v
b0 x
b1 {
1~
#310000
0#!
05
0Y
0~
#315000
b1000 !!
1#!
b100 $!
1+
b11111111111111111111111111110111 ,
15
b11111111111111111111111111110111 ;
b11110100001000100000 K
1Y
1[
b100 \
b1 ]
b1 ^
b1001011000 _
b101100 b
1c
0f
b10001 i
b0 k
b11111111111111111111111111110111 m
b0 o
b0 p
b0 r
b0 t
b1010 v
b0 x
b1 {
1~
#320000
0#!
05
0Y
0~
#325000
b1000 !!
1#!
b100 $!
b10001100 (!
0)
b10111 )!
b11111111111111111111111111111111 *!
15
b11110100001000011111 K
b11 M
0S
1Y
1[
b100 \
b1 ]
b1 ^
b1001011000 _
b101100 b
1c
0f
b10001 i
b0 k
b0 o
b0 p
b0 r
b0 t
b1010 v
b0 x
b1 {
1~
#330000
0#!
05
0Y
0~
#335000
b1000 !!
1#!
b100 $!
1(
1)
b10001100 *
0+
b11111111111111111111111111110111 ,
15
b1100 :
b11110100001000011110 K
1S
b10001100 T
1Y
0[
b100 \
b1 ]
b1 ^
b1001011000 _
b101100 b
1c
0f
b10001 i
b0 k
b0 o
b0 p
b0 r
b0 t
b1100 u
b1010 v
b0 x
b1 {
1~
#340000
0#!
05
0Y
0~
#345000
b1100 !!
1#!
b100 $!
1+
b10111 ,
15
b10111 ;
b11110100001000011101 K
1Y
1[
b100 \
b1 ]
b1 ^
b1001011000 _
b101100 b
1c
0f
b10001 i
b0 k
b10111 m
b0 o
b0 p
b0 r
b0 t
b1010 v
b0 x
b1 {
1~
#350000
0#!
05
0Y
0~
#355000
b1100 !!
1#!
b100 $!
b10010000 (!
0)
b111000 )!
b11111111111111111111111111111111 *!
15
b11110100001000011100 K
b100 M
0S
1Y
1[
b100 \
b1 ]
b1 ^
b1001011000 _
b101100 b
1c
0f
b10001 i
b0 k
b0 o
b0 p
b0 r
b0 t
b1010 v
b0 x
b1 {
1~
#360000
0#!
05
0Y
0~
#365000
b1100 !!
1#!
b100 $!
1(
1)
b10010000 *
0+
b10111 ,
15
b10000 :
b11110100001000011011 K
1S
b10010000 T
1Y
0[
b100 \
b1 ]
b1 ^
b1001011000 _
b101100 b
1c
0f
b10001 i
b0 k
b0 o
b0 p
b0 r
b0 t
b10000 u
b1010 v
b0 x
b1 {
1~
#370000
0#!
05
0Y
0~
#375000
b10000 !!
1#!
b100 $!
1+
b111000 ,
15
b111000 ;
b11110100001000011010 K
1Y
1[
b100 \
b1 ]
b1 ^
b1001011000 _
b101100 b
1c
0f
b10001 i
b0 k
b111000 m
b0 o
b0 p
b0 r
b0 t
b1010 v
b0 x
b1 {
1~
#380000
0#!
05
0Y
0~
#385000
b10000 !!
1#!
b100 $!
b10010100 (!
0)
b111111 )!
b11111111111111111111111111111111 *!
15
b11110100001000011001 K
b101 M
0S
1Y
1[
b100 \
b1 ]
b1 ^
b1001011000 _
b101100 b
1c
0f
b10001 i
b0 k
b0 o
b0 p
b0 r
b0 t
b1010 v
b0 x
b1 {
1~
#390000
0#!
05
0Y
0~
#395000
b10000 !!
1#!
b100 $!
1(
1)
b10010100 *
0+
b111000 ,
15
b10100 :
b11110100001000011000 K
1S
b10010100 T
1Y
0[
b100 \
b1 ]
b1 ^
b1001011000 _
b101100 b
1c
0f
b10001 i
b0 k
b0 o
b0 p
b0 r
b0 t
b10100 u
b1010 v
b0 x
b1 {
1~
#400000
0#!
05
0Y
0~
#405000
b10100 !!
1#!
b100 $!
1+
b111111 ,
15
b111111 ;
b11110100001000010111 K
1Y
1[
b100 \
b1 ]
b1 ^
b1001011000 _
b101100 b
1c
0f
b10001 i
b0 k
b111111 m
b0 o
b0 p
b0 r
b0 t
b1010 v
b0 x
b1 {
1~
#410000
0#!
05
0Y
0~
#415000
b10100 !!
1#!
b100 $!
b10011000 (!
0)
b111000 )!
b11111111111111111111111111111111 *!
15
b11110100001000010110 K
b110 M
0S
1Y
1[
b100 \
b1 ]
b1 ^
b1001011000 _
b101100 b
1c
0f
b10001 i
b0 k
b0 o
b0 p
b0 r
b0 t
b1010 v
b0 x
b1 {
1~
#420000
0#!
05
0Y
0~
#425000
b10100 !!
1#!
b100 $!
1(
1)
b10011000 *
0+
b111111 ,
15
b11000 :
b11110100001000010101 K
1S
b10011000 T
1Y
0[
b100 \
b1 ]
b1 ^
b1001011000 _
b101100 b
1c
0f
b10001 i
b0 k
b0 o
b0 p
b0 r
b0 t
b11000 u
b1010 v
b0 x
b1 {
1~
#430000
0#!
05
0Y
0~
#435000
b11000 !!
1#!
b100 $!
1+
b111000 ,
15
b111000 ;
b11110100001000010100 K
1Y
1[
b100 \
b1 ]
b1 ^
b1001011000 _
b101100 b
1c
0f
b10001 i
b0 k
b111000 m
b0 o
b0 p
b0 r
b0 t
b1010 v
b0 x
b1 {
1~
#440000
0#!
05
0Y
0~
#445000
b11000 !!
1#!
b100 $!
b10011100 (!
0)
b10111 )!
b11111111111111111111111111111111 *!
15
b11110100001000010011 K
b111 M
0S
1Y
1[
b100 \
b1 ]
b1 ^
b1001011000 _
b101100 b
1c
0f
b10001 i
b0 k
b0 o
b0 p
b0 r
b0 t
b1010 v
b0 x
b1 {
1~
#450000
0#!
05
0Y
0~
#455000
b11000 !!
1#!
b100 $!
1(
1)
b10011100 *
0+
b111000 ,
15
b11100 :
b11110100001000010010 K
1S
b10011100 T
1Y
0[
b100 \
b1 ]
b1 ^
b1001011000 _
b101100 b
1c
0f
b10001 i
b0 k
b0 o
b0 p
b0 r
b0 t
b11100 u
b1010 v
b0 x
b1 {
1~
#460000
0#!
05
0Y
0~
#465000
b11100 !!
1#!
b100 $!
1+
b10111 ,
15
b10111 ;
b11110100001000010001 K
1Y
1[
b100 \
b1 ]
b1 ^
b1001011000 _
b101100 b
1c
0f
b10001 i
b0 k
b10111 m
b0 o
b0 p
b0 r
b0 t
b1010 v
b0 x
b1 {
1~
#470000
0#!
05
0Y
0~
#475000
b11100 !!
1#!
b100 $!
b10100000 (!
0)
b11111111111111111111111111110111 )!
b11111111111111111111111111111111 *!
15
b11110100001000010000 K
b1000 M
0S
1Y
1[
b100 \
b1 ]
b1 ^
b1001011000 _
b101100 b
1c
0f
b10001 i
b0 k
b0 o
b0 p
b0 r
b0 t
b1010 v
b0 x
b1 {
1~
#480000
0#!
05
0Y
0~
#485000
b11100 !!
1#!
b100 $!
1(
1)
b10100000 *
0+
b10111 ,
15
b100000 :
b11110100001000001111 K
1S
b10100000 T
1Y
0[
b100 \
b1 ]
b1 ^
b1001011000 _
b101100 b
1c
0f
b10001 i
b0 k
b0 o
b0 p
b0 r
b0 t
b100000 u
b1010 v
b0 x
b1 {
1~
#490000
0#!
05
0Y
0~
#495000
b100000 !!
1#!
b100 $!
1+
b11111111111111111111111111110111 ,
15
b11111111111111111111111111110111 ;
b11110100001000001110 K
1Y
1[
b100 \
b1 ]
b1 ^
b1001011000 _
b101100 b
1c
0f
b10001 i
b0 k
b11111111111111111111111111110111 m
b0 o
b0 p
b0 r
b0 t
b1010 v
b0 x
b1 {
1~
#500000
0#!
05
0Y
0~
#505000
b100000 !!
1#!
b100 $!
b10100100 (!
0)
b11111111111111111111111111110110 )!
b11111111111111111111111111111111 *!
15
b11110100001000001101 K
b1001 M
0S
1Y
1[
b100 \
b1 ]
b1 ^
b1001011000 _
b101100 b
1c
0f
b10001 i
b0 k
b0 o
b0 p
b0 r
b0 t
b1010 v
b0 x
b1 {
1~
#510000
0#!
05
0Y
0~
#515000
b100000 !!
1#!
b100 $!
1(
1)
b10100100 *
0+
b11111111111111111111111111110111 ,
15
b100100 :
b11110100001000001100 K
1S
b10100100 T
1Y
0[
b100 \
b1 ]
b1 ^
b1001011000 _
b101100 b
1c
0f
b10001 i
b0 k
b0 o
b0 p
b0 r
b0 t
b100100 u
b1010 v
b0 x
b1 {
1~
#520000
0#!
05
0Y
0~
#525000
b100100 !!
1#!
b100 $!
1+
b11111111111111111111111111110110 ,
15
b11111111111111111111111111110110 ;
b11110100001000001011 K
1Y
1[
b100 \
b1 ]
b1 ^
b1001011000 _
b101100 b
1c
0f
b10001 i
b0 k
b11111111111111111111111111110110 m
b0 o
b0 p
b0 r
b0 t
b1010 v
b0 x
b1 {
1~
#530000
0#!
05
0Y
0~
#535000
b100100 !!
1#!
b100 $!
b10101000 (!
0)
b0 )!
b11111111111111111111111111111111 *!
15
b11110100001000001010 K
b1010 M
0S
1Y
1[
b100 \
b1 ]
b1 ^
b1001011000 _
b101100 b
1c
0f
b10001 i
b0 k
b0 o
b0 p
b0 r
b0 t
b1010 v
b0 x
b1 {
1~
#540000
0#!
05
0Y
0~
